{
  "sections": {
    "1634143145d83ce0d4": {
      "type": "slideshow",
      "blocks": {
        "1634143145d83ce0d4-0": {
          "type": "image",
          "settings": {
            "image": "shopify:\/\/shop_images\/BBN_V2_Banner_3_1920x_04aeea52-72e5-4d2d-b116-2f8c7cf0caf3.png",
            "mobile_image": "shopify:\/\/shop_images\/BBN_V2_Mobile_3.png",
            "text_position": "middle_left",
            "subheading": "",
            "title": "BB N105 V2 OUT NOW — 30% OFF",
            "button_1_text": "LEARN MORE",
            "button_1_link": "shopify:\/\/pages\/bb-n105-channel-strip",
            "button_1_add_to_cart": false,
            "button_1_class": "",
            "button_1_new_window": false,
            "button_2_text": "TRY FREE FOR 14 DAYS",
            "button_2_link": "shopify:\/\/pages\/downloads",
            "button_2_add_to_cart": false,
            "button_2_class": "",
            "button_2_new_window": false,
            "text_color": "#ffffff",
            "button_background": "#ff6a00",
            "button_text_color": "#ffffff",
            "overlay_color": "#000000",
            "overlay_opacity": 0
          }
        }
      },
      "block_order": [
        "1634143145d83ce0d4-0"
      ],
      "settings": {
        "download_page": "downloads",
        "section_height": "medium",
        "transition_type": "sweep",
        "autoplay": false,
        "cycle_speed": 5,
        "background": "rgba(0,0,0,0)"
      }
    },
    "16341439855dd960cb": {
      "type": "rich-text",
      "settings": {
        "subheading": "Analog modeling just got real",
        "title": "THE NEVE 8078 CONSOLE",
        "content": "<p>Blackbird’s Studio A console is literally a monument of music legend. After John McBride acquired the console in 2001, it underwent a breakthrough restoration process to bring it to its original heavyweight glory. The console then received a series of cutting-edge modifications from some of the most brilliant minds in the audio industry, making it arguably the best model of its namesake ever to exist.<\/p><p>Now YOU can capture the LIMITLESS warmth, MASSIVE depth, and MUSICAL saturation of one of the world’s most uniquely revolutionary analog consoles inside your DAW!<\/p>",
        "button_text": "TRY FREE FOR 14 DAYS",
        "button_link": "shopify:\/\/pages\/downloads",
        "button_add_to_cart": false,
        "button_class": "",
        "background_type": "full_width",
        "text_width": "large",
        "text_position": "center",
        "text_alignment": "center",
        "background": "rgba(0,0,0,0)",
        "text_color": "rgba(0,0,0,0)",
        "button_background": "rgba(0,0,0,0)",
        "button_text_color": "rgba(0,0,0,0)"
      }
    },
    "1634144494b1d07c7d": {
      "type": "slideshow",
      "blocks": {
        "1634144494b1d07c7d-0": {
          "type": "image",
          "settings": {
            "image": "shopify:\/\/shop_images\/kit-plugins-burier-update_1920x_08a74d32-1c16-420f-bd84-4768a95c7d32.png",
            "mobile_image": "shopify:\/\/shop_images\/burier-free-saturation-plugin_copy.png",
            "text_position": "middle_right",
            "subheading": "3 CUSTOMIZABLE COLOR OPTIONS, HD-ENHANCED RESIZABLE GUI, AND SAVAGE SATURATION THAT SLAYS ON DRUMS, BASS, VOCALS, AND MORE",
            "title": "BURIER: FREE SATURATION PLUGIN",
            "button_1_text": "JUST BURY IT",
            "button_1_link": "shopify:\/\/pages\/burier-free",
            "button_1_add_to_cart": false,
            "button_1_class": "",
            "button_1_new_window": false,
            "button_2_text": "",
            "button_2_link": "",
            "button_2_add_to_cart": true,
            "button_2_class": "",
            "button_2_new_window": false,
            "text_color": "#ffffff",
            "button_background": "#ff6a00",
            "button_text_color": "#ffffff",
            "overlay_color": "#000000",
            "overlay_opacity": 0
          }
        }
      },
      "block_order": [
        "1634144494b1d07c7d-0"
      ],
      "settings": {
        "download_page": "downloads",
        "section_height": "auto",
        "transition_type": "sweep",
        "autoplay": false,
        "cycle_speed": 5,
        "background": "rgba(0,0,0,0)"
      }
    },
    "1634145153be8725ca": {
      "type": "slideshow",
      "blocks": {
        "1634145153be8725ca-0": {
          "type": "image",
          "settings": {
            "image": "shopify:\/\/shop_images\/best-kemper-packs-for-metal_1920x_1c1e2f3d-7c7a-44e7-b8ed-4a203f335600.png",
            "mobile_image": "shopify:\/\/shop_images\/high-gain-kemper-packs-for_rock.png",
            "text_position": "middle_left",
            "subheading": "61 PUNISHING PROFILES + 25 MIX-READY PRESETS, MODELED BY JOHN MCBRIDE AND TEAM AT THE WORLD-RENOWNED BLACKBIRD STUDIO",
            "title": "BLACKBIRD HIGH GAIN KEMPER PACK",
            "button_1_text": "GET HUGE RIFFS",
            "button_1_link": "shopify:\/\/pages\/blackbird-high-gain",
            "button_1_add_to_cart": false,
            "button_1_class": "",
            "button_1_new_window": false,
            "button_2_text": "",
            "button_2_link": "",
            "button_2_add_to_cart": true,
            "button_2_class": "",
            "button_2_new_window": false,
            "text_color": "#ffffff",
            "button_background": "#ff6a00",
            "button_text_color": "#ffffff",
            "overlay_color": "#000000",
            "overlay_opacity": 0
          }
        }
      },
      "block_order": [
        "1634145153be8725ca-0"
      ],
      "settings": {
        "download_page": "downloads",
        "section_height": "auto",
        "transition_type": "sweep",
        "autoplay": true,
        "cycle_speed": 5,
        "background": "rgba(0,0,0,0)"
      }
    },
    "163414560884e38be3": {
      "type": "slideshow",
      "blocks": {
        "163414560884e38be3-0": {
          "type": "image",
          "settings": {
            "image": "shopify:\/\/shop_images\/kit-plugins-core-series_1920x_ebf7766c-ed33-47e0-baae-bd8767911ab1.png",
            "mobile_image": "shopify:\/\/shop_images\/Core_Mobile.png",
            "text_position": "middle_right",
            "subheading": "LEGENDARY MIXES START HERE WITH AN ULTRA-TRANSPARENT EQ AND TRANSFORMER- MODELED COMPRESSOR THAT PUNCHES ABOVE ITS WEIGHT CLASS",
            "title": "CORE SERIES: OUT SOON",
            "button_1_text": "LEARN MORE",
            "button_1_link": "shopify:\/\/pages\/core-series",
            "button_1_add_to_cart": false,
            "button_1_class": "core-signup1",
            "button_1_new_window": false,
            "button_2_text": "",
            "button_2_link": "",
            "button_2_add_to_cart": true,
            "button_2_class": "",
            "button_2_new_window": false,
            "text_color": "#ffffff",
            "button_background": "#ff6a00",
            "button_text_color": "#ffffff",
            "overlay_color": "#000000",
            "overlay_opacity": 0
          }
        }
      },
      "block_order": [
        "163414560884e38be3-0"
      ],
      "settings": {
        "download_page": "downloads",
        "section_height": "auto",
        "transition_type": "sweep",
        "autoplay": false,
        "cycle_speed": 5,
        "background": "rgba(0,0,0,0)"
      }
    },
    "1634146529ce48e2cd": {
      "type": "slideshow",
      "blocks": {
        "1634146529ce48e2cd-0": {
          "type": "image",
          "settings": {
            "image": "shopify:\/\/shop_images\/kit-drums-best-drum-samples_1920x_1b30b2f7-fc17-4481-b612-1515e27b4f1e.png",
            "mobile_image": "shopify:\/\/shop_images\/best-real-drum-samples.png",
            "text_position": "middle_left",
            "subheading": "3 WORLD-CLASS KITS AND DOZENS OF MIX-READY PRESETS, INCLUDES A VIRTUAL MIXING CONSOLE W\/ MIC LEVEL ADJUSTMENTS, SATURATION, EQ, COMPRESSION, REVERB, AND MORE",
            "title": "KIT DRUMS: OUT SOON",
            "button_1_text": "LEARN MORE",
            "button_1_link": "shopify:\/\/pages\/kit-drums",
            "button_1_add_to_cart": false,
            "button_1_class": "drum-signup1",
            "button_1_new_window": false,
            "button_2_text": "",
            "button_2_link": "",
            "button_2_add_to_cart": false,
            "button_2_class": "",
            "button_2_new_window": false,
            "text_color": "#ffffff",
            "button_background": "#ff6a00",
            "button_text_color": "#ffffff",
            "overlay_color": "#000000",
            "overlay_opacity": 0
          }
        }
      },
      "block_order": [
        "1634146529ce48e2cd-0"
      ],
      "settings": {
        "download_page": "downloads",
        "section_height": "auto",
        "transition_type": "sweep",
        "autoplay": false,
        "cycle_speed": 5,
        "background": "rgba(0,0,0,0)"
      }
    },
    "16341472605532253b": {
      "type": "logo-list",
      "blocks": {
        "16341472605532253b-0": {
          "type": "logo",
          "settings": {
            "logo": "shopify:\/\/shop_images\/mix_logo.png",
            "link": ""
          }
        },
        "16341472605532253b-1": {
          "type": "logo",
          "settings": {
            "logo": "shopify:\/\/shop_images\/SoundOnSound.png",
            "link": ""
          }
        },
        "16341472605532253b-2": {
          "type": "logo",
          "settings": {
            "logo": "shopify:\/\/shop_images\/tape_op_logo.png",
            "link": ""
          }
        },
        "16341472605532253b-3": {
          "type": "logo",
          "settings": {
            "logo": "shopify:\/\/shop_images\/billboard_logo.png",
            "link": ""
          }
        },
        "16341472605532253b-4": {
          "type": "logo",
          "settings": {
            "logo": "shopify:\/\/shop_images\/sweetware_logo.png",
            "link": ""
          }
        },
        "16341472605532253b-5": {
          "type": "logo",
          "settings": {
            "logo": "shopify:\/\/shop_images\/MusicTech.png",
            "link": ""
          }
        }
      },
      "block_order": [
        "16341472605532253b-0",
        "16341472605532253b-1",
        "16341472605532253b-2",
        "16341472605532253b-3",
        "16341472605532253b-4",
        "16341472605532253b-5"
      ],
      "settings": {
        "reveal_on_scroll": true,
        "subheading": "",
        "title": "FEATURED IN",
        "button_text": "",
        "button_link": "",
        "button_add_to_cart": true,
        "stack_logos": true,
        "background": "rgba(0,0,0,0)",
        "text_color": "rgba(0,0,0,0)",
        "button_background": "rgba(0,0,0,0)",
        "button_text_color": "rgba(0,0,0,0)",
        "logo_background": "rgba(0,0,0,0)"
      }
    },
    "1634147565c39cb7f0": {
      "type": "newsletter",
      "disabled": true,
      "settings": {
        "reveal_on_scroll": true,
        "image": "shopify:\/\/shop_images\/blackbird-studio-neve-plugin_1800x_0f7c12ee-a014-4889-ab1b-fb98ef844047.jpg",
        "subheading": "Stay up on the latest and greatest",
        "content": "<p>Get EXCLUSIVE discounts, FREE full-length mix tutorials, FREE plugins, and some other pretty rad sh*t that we currently aren’t at liberty to discuss.<\/p>",
        "text_position": "center",
        "text_alignment": "center",
        "text_background": "rgba(0,0,0,0)",
        "text_color": "rgba(0,0,0,0)",
        "button_background": "rgba(0,0,0,0)",
        "button_text_color": "rgba(0,0,0,0)"
      }
    }
  },
  "order": [
    "1634143145d83ce0d4",
    "16341439855dd960cb",
    "1634144494b1d07c7d",
    "1634145153be8725ca",
    "163414560884e38be3",
    "1634146529ce48e2cd",
    "16341472605532253b",
    "1634147565c39cb7f0"
  ]
}